Place,ChineseName,Name,Sex,BirthDate,Equipment,Division,BodyweightKg,WeightClassKg,Squat1Kg,Squat2Kg,Squat3Kg,Best3SquatKg,Bench1Kg,Bench2Kg,Bench3Kg,Best3BenchKg,Deadlift1Kg,Deadlift2Kg,Deadlift3Kg,Best3DeadliftKg,TotalKg,Event,Team
1,车卜艳,,F,1999-10-27,Raw,Open,50.55,52,80,92.5,-95,92.5,37.5,-40,-40,37.5,115,125,-130,125,255,SBD,向上站队
2,吴竹婷,,F,1993-10-29,Raw,Open,47.6,52,80,85,87.5,87.5,40,42.5,-50,42.5,80,85,90,90,220,SBD,蹲重战队
1,罗卓姿,,F,1996-10-18,Raw,Open,54.25,57,80,85,90,90,30,-35,-35,30,100,115,125,125,245,SBD,
2,陈碧云,,F,1983-02-03,Raw,Open,56.1,57,75,77.5,80,80,45,-47.5,-47.5,45,105,107.5,115,115,240,SBD,
1,杨惠颖,,F,1992-04-26,Raw,Open,57.25,63,90,100,105,105,42.5,47.5,50,50,115,125,130,130,285,SBD,
1,王文越,,F,1999-03-16,Raw,Open,80.1,84,-87.5,95,-107.5,95,47.5,52.5,-57.5,52.5,115,125,132.5,132.5,280,SBD,
2,林晗睿,,F,1999-02-10,Raw,Open,81.25,84,50,57.5,62.5,62.5,30,-35,-35,30,80,90,100,100,192.5,SBD,虎狼骑战队
NS,谭超雄,,M,1979-01-21,Raw,Open,,,,,,,,,,,,,,,,SBD,
1,陈茂铙,,M,1997-11-04,Raw,Open,58.75,59,162.5,170,-175,170,132.5,-137.5,-137.5,132.5,182.5,195,202.5,202.5,505,SBD,26
1,江骏豪,,M,1990-12-11,Raw,Open,65.9,66,-170,175,-180,175,100,110,-117.5,110,-170,185,-215,185,470,SBD,大屁股战队
1,张文忠,,M,1998-06-01,Raw,Open,71.8,74,170,182.5,187.5,187.5,102.5,-110,-110,102.5,200,215,225,225,515,SBD,向上战队
2,麥永業,,M,1997-04-09,Raw,Open,73.2,74,160,170,180,180,92.5,100,105,105,200,215,230,230,515,SBD,
3,林智偉,,M,1996-10-07,Raw,Open,73.65,74,155,170,-172.5,170,95,105,112.5,112.5,172.5,185,-200,185,467.5,SBD,
4,王念,,M,1976-10-08,Raw,Open,72.5,74,130,140,152.5,152.5,92.5,100,-107.5,100,140,150,160,160,412.5,SBD,湾区少年队
5,翟子东,,M,1995-11-23,Raw,Open,73.3,74,125,132.5,140,140,90,-95,-95,90,155,165,175,175,405,SBD,古斯特健力队
1,王译霆,,M,1991-12-18,Raw,Open,80.55,83,190,200,-205,200,120,125,130,130,220,230,240,240,570,SBD,蹲重战队
2,汤子恒,,M,1996-09-05,Raw,Open,81.65,83,170,180,190,190,105,-115,115,115,200,-212.5,-212.5,200,505,SBD,
3,陈伟彬,,M,1989-09-24,Raw,Open,81.8,83,-165,170,182.5,182.5,120,127.5,132.5,132.5,175,190,-205,190,505,SBD,
4,任世玺,,M,1982-02-27,Raw,Open,78.65,83,150,160,172.5,172.5,77.5,87.5,-95,87.5,160,172.5,185,185,445,SBD,湾区少年队
1,姜奕丞,,M,1998-02-24,Raw,Open,84.45,93,232.5,242.5,-245,242.5,152.5,155,-157.5,155,255,265,270,270,667.5,SBD,
2,周椿哲,,M,1991-04-08,Raw,Open,91.5,93,175,185,195,195,125,135,-145,135,187.5,192.5,225,225,555,SBD,
3,刘鑫铭,,M,1996-12-29,Raw,Open,83.8,93,180,190,-200,190,125,-130,130,130,180,-190,190,190,510,SBD,虎狼骑战队
4,杨朴群,,M,1992-12-05,Raw,Open,86.1,93,165,180,190,190,110,120,-125,120,175,190,200,200,510,SBD,湾区少年队
5,陈泽华,,M,1997-08-30,Raw,Open,91.5,93,140,170,185,185,100,120,-125,120,185,195,200,200,505,SBD,
1,陳偉倡,,M,1995-03-31,Raw,Open,96.1,105,215,225,242.5,242.5,110,120,-132.5,120,215,237.5,-260,237.5,600,SBD,
2,吴泽豪,,M,2004-07-25,Raw,Open,94.7,105,175,185,190,190,92.5,100,107.5,107.5,180,195,207.5,207.5,505,SBD,
1,刘世赞,,M,2001-03-25,Raw,Juniors,57.6,59,117.5,127.5,135,135,70,77.5,-80,77.5,122.5,135,145,145,357.5,SBD,向上战队
2,曹耀霖,,M,2003-08-01,Raw,Juniors,57.7,59,-115,120,130,130,70,-80,-80,70,130,-140,-140,130,330,SBD,
DQ,李卓宇,,M,2000-08-31,Raw,Juniors,64.4,66,-140,-150,-150,,105,-110,-115,105,-170,180,-200,180,,SBD,
1,钟昌淇,,M,2000-09-20,Raw,Juniors,71.9,74,172.5,180,190,190,97.5,-105,-115,97.5,182.5,192.5,200,200,487.5,SBD,蹲重战队
2,蔡润龙,,M,,Raw,Juniors,71.3,74,-120,130,-135,130,90,95,-100,95,170,180,200,200,425,SBD,
DQ,谢俊熙,,M,2003-09-23,Raw,Juniors,71.5,74,155,170,180,180,-95,-95,-95,,190,200,-217.5,200,,SBD,
1,胡楚畑,,M,2002-11-16,Raw,Juniors,77.1,83,190,200,-210,200,105,110,-150,110,200,205,-217.5,205,515,SBD,蹲重战队
2,奇冬辑,,M,2002-12-22,Raw,Juniors,80.1,83,150,165,172.5,172.5,87.5,95,-100,95,160,172.5,-180,172.5,440,SBD,
1,袁锦涛,,M,2000-02-19,Raw,Juniors,126.3,120+,150,160,-172.5,160,150,160,-170,160,150,160,-170,160,480,SBD,
1,陆四文,,M,1999-03-04,Raw,Open,72.8,74,,,,,,,,,-230,240,250,250,250,D,
2,吴杰浩,,M,,Raw,Open,72.9,74,,,,,,,,,165,175,-190,175,175,D,
1,钟伟彬,,M,,Raw,Open,90.1,93,,,,,,,,,190,200,207.5,207.5,207.5,D,江门涅槃
2,郭楠,,M,1993-12-23,Raw,Open,92.3,93,,,,,,,,,177.5,192.5,205,205,205,D,
1,李卓宇,,M,2000-08-31,Raw,Juniors,65.9,66,,,,,,,,,180,190,202.5,202.5,202.5,D,
1,张宗其,,M,2001-01-31,Raw,Juniors,82,83,,,,,,,,,210,230,-242.5,230,230,D,
1,苏博,,M,2000-09-09,Raw,Juniors,98.6,105,,,,,,,,,240,260,-265,260,260,D,
1,陈旸,,M,2002-07-10,Raw,Juniors,117.7,120,,,,,,,,,245,265,272.5,272.5,272.5,D,
